total_cluster,total_data,total_populasi,max_iterations,crossover_rate,mutation_rate,sse_ga,_sse_ga,sse_kmeans,_sse_kmeans,data_kmeans,data_ga,start_date,end_date,thumbnail_cluster_kmeans,thumbnail_cluster_ga
2,2120,1000,500,0.4,0.2,2417.66521096762,0.0004136221985838026,2174.466376255041,0.00045988294457890993,-,-,,,cluster/yplizvibx6_kmeans_cluster.png,cluster/yplizvibx6_ga_kmeans_cluster.png
3,2120,1000,500,0.4,0.2,1535.2563092327737,0.0006513570365978422,1445.1012811125995,0.0006919930201916982,-,-,,,cluster/ikuei1fvmv_kmeans_cluster.png,cluster/ikuei1fvmv_ga_kmeans_cluster.png
4,2120,1000,500,0.4,0.2,1455.867072442124,0.0006868758961095012,1124.6246420876162,0.0008891855669672344,-,-,,,cluster/s8oo4425i6_kmeans_cluster.png,cluster/s8oo4425i6_ga_kmeans_cluster.png
5,2120,1000,500,0.4,0.2,1445.580130234502,0.0006917637971668718,1025.6032702124844,0.0009750358925755181,-,-,,,cluster/upg32v2uqy_kmeans_cluster.png,cluster/upg32v2uqy_ga_kmeans_cluster.png
6,2120,1000,500,0.4,0.2,2076.713982711509,0.000481529959505703,949.8447948560745,0.0010528035795064027,-,-,,,cluster/yobl34lok7_kmeans_cluster.png,cluster/yobl34lok7_ga_kmeans_cluster.png
7,2120,1000,500,0.4,0.2,887.9974820949055,0.0011261293192418355,834.0052644331879,0.0011990331987647902,-,-,,,cluster/j5j01j68ve_kmeans_cluster.png,cluster/j5j01j68ve_ga_kmeans_cluster.png
8,2120,1000,500,0.4,0.2,945.3419398465185,0.0010578182960573562,715.5455386550559,0.001397535091728203,-,-,,,cluster/ki49v5t6p9_kmeans_cluster.png,cluster/ki49v5t6p9_ga_kmeans_cluster.png
9,2120,1000,500,0.4,0.2,945.1229626735737,0.001058063383806896,763.5560752078902,0.0013096615068221862,-,-,,,cluster/wxudjuavss_kmeans_cluster.png,cluster/wxudjuavss_ga_kmeans_cluster.png
10,2120,1000,500,0.4,0.2,829.8630271955077,0.0012050181382094634,698.194496632912,0.0014322656578110607,-,-,,,cluster/z4y9f0mtkp_kmeans_cluster.png,cluster/z4y9f0mtkp_ga_kmeans_cluster.png
2,2120,1000,500,0.4,0.1,2564.467670738281,0.0003899444751869738,2174.466376255041,0.00045988294457890993,-,-,,,cluster/pmqmxp5ugn_kmeans_cluster.png,cluster/pmqmxp5ugn_ga_kmeans_cluster.png
3,2120,1000,500,0.4,0.1,1535.2563092327737,0.0006513570365978422,1445.1012811125995,0.0006919930201916982,-,-,,,cluster/qwg68b9our_kmeans_cluster.png,cluster/qwg68b9our_ga_kmeans_cluster.png
4,2120,1000,500,0.4,0.1,2404.5662557458727,0.00041587541936531495,1124.6246420876162,0.0008891855669672344,-,-,,,cluster/iurqdgla5x_kmeans_cluster.png,cluster/iurqdgla5x_ga_kmeans_cluster.png
5,2120,1000,500,0.4,0.1,1278.8778785197792,0.0007819354895382484,1025.6032702124844,0.0009750358925755181,-,-,,,cluster/s0j4hqgdv3_kmeans_cluster.png,cluster/s0j4hqgdv3_ga_kmeans_cluster.png
6,2120,1000,500,0.4,0.1,1467.576546357339,0.0006813954628002829,949.8447948560745,0.0010528035795064027,-,-,,,cluster/mqzxs5ez8y_kmeans_cluster.png,cluster/mqzxs5ez8y_ga_kmeans_cluster.png
7,2120,1000,500,0.4,0.1,963.5565315407912,0.0010378218270192547,834.0052644331879,0.0011990331987647902,-,-,,,cluster/wr9e9t37nv_kmeans_cluster.png,cluster/wr9e9t37nv_ga_kmeans_cluster.png
8,2120,1000,500,0.4,0.1,956.6271019743458,0.0010453393991620545,715.5455386550559,0.001397535091728203,-,-,,,cluster/wqoedik6wr_kmeans_cluster.png,cluster/wqoedik6wr_ga_kmeans_cluster.png
9,2120,1000,500,0.4,0.1,945.1229626735737,0.001058063383806896,763.5560752078902,0.0013096615068221862,-,-,,,cluster/cbeucs0xf8_kmeans_cluster.png,cluster/cbeucs0xf8_ga_kmeans_cluster.png
10,2120,1000,500,0.4,0.1,932.885238720743,0.0010719432128342933,698.194496632912,0.0014322656578110607,-,-,,,cluster/ixbotkiwqf_kmeans_cluster.png,cluster/ixbotkiwqf_ga_kmeans_cluster.png
