total_cluster,total_data,total_populasi,max_iterations,crossover_rate,mutation_rate,sse_ga,_sse_ga,sse_kmeans,_sse_kmeans,data_kmeans,data_ga,start_date,end_date,thumbnail_cluster_kmeans,thumbnail_cluster_ga
2,2120,1000,500,0.4,0.1,2564.467670738281,0.0003899444751869738,2174.466376255041,0.00045988294457890993,-,-,,,cluster/pmqmxp5ugn_kmeans_cluster.png,cluster/pmqmxp5ugn_ga_kmeans_cluster.png
3,2120,1000,500,0.4,0.1,1535.2563092327737,0.0006513570365978422,1445.1012811125995,0.0006919930201916982,-,-,,,cluster/qwg68b9our_kmeans_cluster.png,cluster/qwg68b9our_ga_kmeans_cluster.png
4,2120,1000,500,0.4,0.1,2404.5662557458727,0.00041587541936531495,1124.6246420876162,0.0008891855669672344,-,-,,,cluster/iurqdgla5x_kmeans_cluster.png,cluster/iurqdgla5x_ga_kmeans_cluster.png
5,2120,1000,500,0.4,0.1,1278.8778785197792,0.0007819354895382484,1025.6032702124844,0.0009750358925755181,-,-,,,cluster/s0j4hqgdv3_kmeans_cluster.png,cluster/s0j4hqgdv3_ga_kmeans_cluster.png
6,2120,1000,500,0.4,0.1,1467.576546357339,0.0006813954628002829,949.8447948560745,0.0010528035795064027,-,-,,,cluster/mqzxs5ez8y_kmeans_cluster.png,cluster/mqzxs5ez8y_ga_kmeans_cluster.png
7,2120,1000,500,0.4,0.1,963.5565315407912,0.0010378218270192547,834.0052644331879,0.0011990331987647902,-,-,,,cluster/wr9e9t37nv_kmeans_cluster.png,cluster/wr9e9t37nv_ga_kmeans_cluster.png
8,2120,1000,500,0.4,0.1,956.6271019743458,0.0010453393991620545,715.5455386550559,0.001397535091728203,-,-,,,cluster/wqoedik6wr_kmeans_cluster.png,cluster/wqoedik6wr_ga_kmeans_cluster.png
9,2120,1000,500,0.4,0.1,945.1229626735737,0.001058063383806896,763.5560752078902,0.0013096615068221862,-,-,,,cluster/cbeucs0xf8_kmeans_cluster.png,cluster/cbeucs0xf8_ga_kmeans_cluster.png
10,2120,1000,500,0.4,0.1,932.885238720743,0.0010719432128342933,698.194496632912,0.0014322656578110607,-,-,,,cluster/ixbotkiwqf_kmeans_cluster.png,cluster/ixbotkiwqf_ga_kmeans_cluster.png
2,2120,100,500,0.4,0.1,2135.610939907304,0.0004682500830621354,2174.466376255041,0.00045988294457890993,-,-,,,cluster/wgnn6a73nb_kmeans_cluster.png,cluster/wgnn6a73nb_ga_kmeans_cluster.png
2,2120,300,500,0.4,0.1,2195.6945227228002,0.00045543676028299995,2174.466376255041,0.00045988294457890993,-,-,,,cluster/99bebiewvd_kmeans_cluster.png,cluster/99bebiewvd_ga_kmeans_cluster.png
2,2120,700,500,0.4,0.1,2410.082272674287,0.000414923594658192,2174.466376255041,0.00045988294457890993,-,-,,,cluster/vqnvytdxk7_kmeans_cluster.png,cluster/vqnvytdxk7_ga_kmeans_cluster.png
2,2120,900,500,0.4,0.1,2185.82855686552,0.00045749242174509825,2174.466376255041,0.00045988294457890993,-,-,,,cluster/v45i8zl3nb_kmeans_cluster.png,cluster/v45i8zl3nb_ga_kmeans_cluster.png
3,2120,100,500,0.4,0.1,2102.931371419261,0.0004755266926876,1445.1012811125995,0.0006919930201916982,-,-,,,cluster/pb2my64enn_kmeans_cluster.png,cluster/pb2my64enn_ga_kmeans_cluster.png
3,2120,300,500,0.4,0.1,1654.6511417916831,0.0006043569999396875,1445.1012811125995,0.0006919930201916982,-,-,,,cluster/q6ubc4y77n_kmeans_cluster.png,cluster/q6ubc4y77n_ga_kmeans_cluster.png
3,2120,700,500,0.4,0.1,1535.7075055024184,0.000651165665608206,1445.1012811125995,0.0006919930201916982,-,-,,,cluster/xldpe7vetw_kmeans_cluster.png,cluster/xldpe7vetw_ga_kmeans_cluster.png
3,2120,900,500,0.4,0.1,2413.7786985355665,0.00041428818665385417,1445.1012811125995,0.0006919930201916982,-,-,,,cluster/8amqnn4mhs_kmeans_cluster.png,cluster/8amqnn4mhs_ga_kmeans_cluster.png
4,2120,100,500,0.4,0.1,1414.6957641548654,0.0007068657624753664,1124.6246420876162,0.0008891855669672344,-,-,,,cluster/g1ri090hc1_kmeans_cluster.png,cluster/g1ri090hc1_ga_kmeans_cluster.png
4,2120,300,500,0.4,0.1,1287.8763592456671,0.0007764720524769306,1124.6246420876162,0.0008891855669672344,-,-,,,cluster/k66ealrcql_kmeans_cluster.png,cluster/k66ealrcql_ga_kmeans_cluster.png
4,2120,700,500,0.4,0.1,1404.4429750958466,0.0007120260613869031,1124.6246420876162,0.0008891855669672344,-,-,,,cluster/bdw4hb7o17_kmeans_cluster.png,cluster/bdw4hb7o17_ga_kmeans_cluster.png
4,2120,900,500,0.4,0.1,1454.8210634106292,0.0006873697564260148,1124.6246420876162,0.0008891855669672344,-,-,,,cluster/arvbsxz8hg_kmeans_cluster.png,cluster/arvbsxz8hg_ga_kmeans_cluster.png
5,2120,100,500,0.4,0.1,1437.010613707121,0.0006958890842289989,1025.6032702124844,0.0009750358925755181,-,-,,,cluster/660aq7gq9r_kmeans_cluster.png,cluster/660aq7gq9r_ga_kmeans_cluster.png
5,2120,300,500,0.4,0.1,1454.2671515378775,0.000687631566829043,1025.6032702124844,0.0009750358925755181,-,-,,,cluster/v05tuo6nt5_kmeans_cluster.png,cluster/v05tuo6nt5_ga_kmeans_cluster.png
5,2120,700,500,0.4,0.1,1278.8778785197792,0.0007819354895382484,1025.6032702124844,0.0009750358925755181,-,-,,,cluster/7nfi1vgsjn_kmeans_cluster.png,cluster/7nfi1vgsjn_ga_kmeans_cluster.png
5,2120,900,500,0.4,0.1,1535.4161741663497,0.0006512892184055228,1025.6032702124844,0.0009750358925755181,-,-,,,cluster/sq4z4ydsa4_kmeans_cluster.png,cluster/sq4z4ydsa4_ga_kmeans_cluster.png
