total_cluster,total_data,total_populasi,max_iterations,crossover_rate,mutation_rate,sse_ga,sse_kmeans,data_kmeans,data_ga,start_date,end_date,thumbnail_cluster_kmeans,thumbnail_cluster_ga
3,2120,100,100,0.7,0.3,1.1429085849166138e-05,3.567999049042419e-05,-,-,,,cluster/yl3n1wsmw7_kmeans_cluster.png,cluster/yl3n1wsmw7_ga_kmeans_cluster.png
3,2120,100,200,0.7,0.3,1.1162855976923008e-05,3.567999049042419e-05,-,-,,,cluster/4fckc93f72_kmeans_cluster.png,cluster/4fckc93f72_ga_kmeans_cluster.png
3,2120,100,300,0.7,0.3,7.842757135838023e-05,3.567999049042419e-05,-,-,,,cluster/hrzw43wowb_kmeans_cluster.png,cluster/hrzw43wowb_ga_kmeans_cluster.png
3,2120,100,400,0.7,0.3,0.0001982091041243433,3.567999049042419e-05,-,-,,,cluster/cu6b54xg9t_kmeans_cluster.png,cluster/cu6b54xg9t_ga_kmeans_cluster.png
3,2120,100,500,0.7,0.3,3.338345038708153e-05,3.567999049042419e-05,-,-,,,cluster/9riviyz0yv_kmeans_cluster.png,cluster/9riviyz0yv_ga_kmeans_cluster.png
